.............
----------------------------------------------------------------------
Ran 13 tests in 0.528s

OK
Name             Stmts   Miss Branch BrPart  Cover   Missing
------------------------------------------------------------
Collatz.py          34      2     16      2    92%   48, 97
TestCollatz.py      60      0      0      0   100%
------------------------------------------------------------
TOTAL               94      2     16      2    96%
