1 10 20
100 200 125
201 210 89
900 1000 174
222 341 144
182 814 171
190 918 179
85 234 128
227 831 171
489 699 145
214 789 171
442 978 179
41 796 171
486 631 142
161 360 144
398 404 121
22 70 113
181 798 171
371 660 145
453 569 142
190 668 145
137 977 179
378 866 171
228 678 145
97 255 128
176 813 171
418 429 103
53 715 171
112 920 179
148 236 128
398 480 134
422 775 171
390 460 134
18 681 145
279 989 179
169 327 144
462 599 142
106 473 144
153 664 145
118 692 145
264 504 144
46 57 113
402 833 171
22 238 128
408 476 134
304 919 179
418 988 179
64 753 171
113 449 144
219 669 145
123 503 144
444 888 179
191 192 45
336 567 142
422 864 171
334 406 126
80 436 144
369 471 134
353 918 179
135 964 179
310 329 144
403 893 179
395 693 145
477 737 171
115 514 144
331 826 171
329 991 179
439 865 171
58 551 144
199 971 179
34 778 171
77 672 145
80 234 128
229 973 179
450 933 179
156 778 171
212 574 144
345 589 142
330 912 179
324 986 179
408 684 145
196 778 171
235 338 144
192 878 179
316 598 144
244 520 144
250 907 179
271 783 171
481 905 179
272 668 145
477 741 171
365 888 179
187 578 144
305 889 179
335 500 142
419 597 142
424 996 179
398 651 145
310 470 144
170 938 179
421 893 179
427 809 171
214 703 171
239 614 144
151 969 179
156 398 144
212 827 171
288 820 171
202 424 144
354 808 171
434 462 129
360 884 179
333 473 134
25 334 144
110 630 144
188 908 179
81 320 131
219 888 179
282 798 171
293 437 144
76 447 144
108 342 144
423 955 179
374 812 171
325 947 179
202 609 144
313 789 171
426 924 179
2 411 144
398 446 134
302 601 144
346 705 171
9 829 171
273 537 144
118 198 125
97 662 145
219 960 179
393 426 134
28 780 171
497 515 124
482 994 179
245 655 145
397 911 179
308 532 144
497 552 137
137 314 131
283 997 179
413 548 142
1 911 179
274 888 179
362 908 179
68 85 116
8 46 112
337 873 179
416 696 145
49 566 144
94 692 145
478 893 179
135 849 171
362 748 171
470 609 142
251 293 123
18 191 125
165 395 144
56 939 179
341 617 142
332 900 179
261 273 123
261 679 145
380 966 179
438 464 129
417 809 171
135 228 125
199 386 144
197 206 120
488 814 171
94 175 125
290 881 179
404 864 171
427 983 179
318 936 179
250 702 145
124 361 144
360 914 179
200 915 179
173 814 171
140 330 144
490 619 142
172 554 144
426 909 179
333 364 126
66 572 144
433 618 142
260 911 179
352 422 134
457 549 142
425 810 171
4 668 145
368 966 179
335 533 142
293 632 144
56 280 128
291 802 171
305 484 144
484 935 179
357 361 51
433 938 179
315 420 144
105 246 128
373 699 145
74 148 122
403 659 145
26 479 144
52 908 179
331 703 171
23 848 171
7 504 144
298 307 118
85 415 144
474 912 179
309 872 179
290 559 144
197 219 120
65 297 128
56 184 125
148 350 144
255 944 179
451 524 142
409 924 179
232 864 171
112 396 144
258 581 144
92 119 119
364 570 142
482 668 145
108 432 144
423 825 171
191 710 171
359 844 171
95 530 144
464 937 179
41 770 171
283 290 118
241 889 179
433 489 142
259 315 131
89 855 171
381 815 171
52 618 144
429 915 179
238 604 144
468 949 179
83 127 119
204 593 144
